user.yuhui:user.yuhui.701040.Sh_2214_llll.DAOD_FTAG2.e8543_s4162_r14622_p5981.online24_2024.2_v5.0_output_root
user.yuhui:user.yuhui.701045.Sh_2214_lllv.DAOD_FTAG2.e8543_s4162_r14622_p5981.online24_2024.2_v5.0_output_root
user.yuhui:user.yuhui.701055.Sh_2214_llvv_ss.DAOD_FTAG2.e8543_s4162_r14622_p5981.online24_2024.2_v5.0_output_root
user.yuhui:user.yuhui.701060.Sh_2214_lvvv.DAOD_FTAG2.e8543_s4162_r14622_p5981.online24_2024.2_v5.0_output_root
user.yuhui:user.yuhui.701085.Sh_2214_ZqqZll.DAOD_FTAG2.e8543_s4162_r14622_p5981.online24_2024.2_v5.0_output_root
user.yuhui:user.yuhui.701090.Sh_2214_ZbbZll.DAOD_FTAG2.e8543_s4162_r14622_p5981.online24_2024.2_v5.0_output_root
user.yuhui:user.yuhui.701105.Sh_2214_WqqZll.DAOD_FTAG2.e8543_s4162_r14622_p5981.online24_2024.2_v5.0_output_root
user.yuhui:user.yuhui.701120.Sh_2214_WlvZbb.DAOD_FTAG2.e8543_s4162_r14622_p5981.online24_2024.2_v5.0_output_root
user.yuhui:user.yuhui.701125.Sh_2214_WlvWqq.DAOD_FTAG2.e8543_s4162_r14622_p5981.online24_2024.2_v5.0_output_root
user.yuhui:user.yuhui.701115.Sh_2214_WlvZqq.DAOD_FTAG2.e8543_s4162_r14622_p5981.online24_2024.2_v5.0_output_root
